{
	"info": {
		"_postman_id": "9072c1af-8cff-4107-b3b8-5e36c2f38f91",
		"name": "S32-S36",
		"schema": "https://schema.getpostman.com/json/collection/v2.1.0/collection.json"
	},
	"item": [
		{
			"name": "Check For Duplicate Emails",
			"request": {
				"method": "POST",
				"header": [],
				"body": {
					"mode": "raw",
					"raw": "{\n    \"email\": \"john@mail.com\"\n}",
					"options": {
						"raw": {
							"language": "json"
						}
					}
				},
				"url": {
					"raw": "http://localhost:4000/users/checkEmail",
					"protocol": "http",
					"host": [
						"localhost"
					],
					"port": "4000",
					"path": [
						"users",
						"checkEmail"
					]
				}
			},
			"response": []
		},
		{
			"name": "Register User",
			"request": {
				"method": "POST",
				"header": [],
				"body": {
					"mode": "raw",
					"raw": "{\n    \"firstName\": \"Admin\",\n    \"lastName\": \"Admin\",\n    \"email\": \"admin@mail.com\",\n    \"mobileNo\": \"09123456789\",\n    \"password\": \"admin123\"\n}",
					"options": {
						"raw": {
							"language": "json"
						}
					}
				},
				"url": {
					"raw": "http://localhost:4000/users/register",
					"protocol": "http",
					"host": [
						"localhost"
					],
					"port": "4000",
					"path": [
						"users",
						"register"
					]
				}
			},
			"response": []
		},
		{
			"name": "User Authentication",
			"request": {
				"method": "POST",
				"header": [],
				"body": {
					"mode": "raw",
					"raw": "{\n    \"email\": \"admin@mail.com\",\n    \"password\": \"admin123\"\n}",
					"options": {
						"raw": {
							"language": "json"
						}
					}
				},
				"url": {
					"raw": "http://localhost:4000/users/login",
					"protocol": "http",
					"host": [
						"localhost"
					],
					"port": "4000",
					"path": [
						"users",
						"login"
					]
				}
			},
			"response": []
		},
		{
			"name": "Create Course",
			"request": {
				"auth": {
					"type": "bearer",
					"bearer": [
						{
							"key": "token",
							"value": "eyJhbGciOiJIUzI1NiIsInR5cCI6IkpXVCJ9.eyJpZCI6IjYxM2U5OTY5MWRiZTA2MjlmOGQwM2JjMyIsImVtYWlsIjoiYWRtaW5AbWFpbC5jb20iLCJpc0FkbWluIjp0cnVlLCJpYXQiOjE2MzE0OTI3MTN9.jllzPm4DwEvGZ83FBaD3IbeiFQsC58CpTfsov-ihP0A",
							"type": "string"
						}
					]
				},
				"method": "POST",
				"header": [],
				"body": {
					"mode": "raw",
					"raw": "{\n    \"name\" : \"CSS\",\n    \"description\" : \"Let's make our websites look cooler.\",\n    \"price\" : 500\n}",
					"options": {
						"raw": {
							"language": "json"
						}
					}
				},
				"url": {
					"raw": "http://localhost:4000/courses",
					"protocol": "http",
					"host": [
						"localhost"
					],
					"port": "4000",
					"path": [
						"courses"
					]
				}
			},
			"response": []
		},
		{
			"name": "Enroll User",
			"request": {
				"auth": {
					"type": "bearer",
					"bearer": [
						{
							"key": "token",
							"value": "eyJhbGciOiJIUzI1NiIsInR5cCI6IkpXVCJ9.eyJpZCI6IjYxM2U5OTY5MWRiZTA2MjlmOGQwM2JjMyIsImVtYWlsIjoiYWRtaW5AbWFpbC5jb20iLCJpc0FkbWluIjp0cnVlLCJpYXQiOjE2MzE0OTI3MTN9.jllzPm4DwEvGZ83FBaD3IbeiFQsC58CpTfsov-ihP0A",
							"type": "string"
						}
					]
				},
				"method": "POST",
				"header": [],
				"body": {
					"mode": "raw",
					"raw": "{\n    \"courseId\" : \"613e926a82198824c8c4ce0e\"\n}",
					"options": {
						"raw": {
							"language": "json"
						}
					}
				},
				"url": {
					"raw": "http://localhost:4000/users/enroll",
					"protocol": "http",
					"host": [
						"localhost"
					],
					"port": "4000",
					"path": [
						"users",
						"enroll"
					]
				}
			},
			"response": []
		},
		{
			"name": "Retrieve A Specific Course",
			"request": {
				"method": "GET",
				"header": [],
				"url": {
					"raw": "http://localhost:4000/courses/613e926a82198824c8c4ce0e",
					"protocol": "http",
					"host": [
						"localhost"
					],
					"port": "4000",
					"path": [
						"courses",
						"613e926a82198824c8c4ce0e"
					]
				}
			},
			"response": []
		},
		{
			"name": "Retrieve User Details",
			"request": {
				"auth": {
					"type": "bearer",
					"bearer": [
						{
							"key": "token",
							"value": "eyJhbGciOiJIUzI1NiIsInR5cCI6IkpXVCJ9.eyJpZCI6IjYxM2U3N2M5NDIzMTc3YTVhYjlhMDY2ZCIsImVtYWlsIjoiam9obkBtYWlsLmNvbSIsImlzQWRtaW4iOmZhbHNlLCJpYXQiOjE2MzE0ODkyNzV9._8QPUI5S0flEO3pMncEo2bQ_GzTQfzLUM_Z2s8ljAQQ",
							"type": "string"
						}
					]
				},
				"method": "GET",
				"header": [],
				"url": {
					"raw": "http://localhost:4000/users/details",
					"protocol": "http",
					"host": [
						"localhost"
					],
					"port": "4000",
					"path": [
						"users",
						"details"
					]
				}
			},
			"response": []
		},
		{
			"name": "Retrieve All Courses",
			"request": {
				"method": "GET",
				"header": [],
				"url": {
					"raw": "http://localhost:4000/courses/all",
					"protocol": "http",
					"host": [
						"localhost"
					],
					"port": "4000",
					"path": [
						"courses",
						"all"
					]
				}
			},
			"response": []
		},
		{
			"name": "Retrieve All Active Courses",
			"request": {
				"method": "GET",
				"header": [],
				"url": {
					"raw": "http://localhost:4000/courses",
					"protocol": "http",
					"host": [
						"localhost"
					],
					"port": "4000",
					"path": [
						"courses"
					]
				}
			},
			"response": []
		},
		{
			"name": "Update A Course",
			"request": {
				"auth": {
					"type": "bearer",
					"bearer": [
						{
							"key": "token",
							"value": "eyJhbGciOiJIUzI1NiIsInR5cCI6IkpXVCJ9.eyJpZCI6IjYxM2U5OTY5MWRiZTA2MjlmOGQwM2JjMyIsImVtYWlsIjoiYWRtaW5AbWFpbC5jb20iLCJpc0FkbWluIjp0cnVlLCJpYXQiOjE2MzE0OTI3MTN9.jllzPm4DwEvGZ83FBaD3IbeiFQsC58CpTfsov-ihP0A",
							"type": "string"
						}
					]
				},
				"method": "PUT",
				"header": [],
				"body": {
					"mode": "raw",
					"raw": "{\n    \"name\" : \"JavaScript\",\n    \"description\" : \"Making websites interactive since the 90's.\",\n    \"price\" : 2000\n}",
					"options": {
						"raw": {
							"language": "json"
						}
					}
				},
				"url": {
					"raw": "http://localhost:4000/courses/613e926a82198824c8c4ce0e",
					"protocol": "http",
					"host": [
						"localhost"
					],
					"port": "4000",
					"path": [
						"courses",
						"613e926a82198824c8c4ce0e"
					]
				}
			},
			"response": []
		},
		{
			"name": "Archive A Course",
			"request": {
				"auth": {
					"type": "bearer",
					"bearer": [
						{
							"key": "token",
							"value": "eyJhbGciOiJIUzI1NiIsInR5cCI6IkpXVCJ9.eyJpZCI6IjYxM2U5OTY5MWRiZTA2MjlmOGQwM2JjMyIsImVtYWlsIjoiYWRtaW5AbWFpbC5jb20iLCJpc0FkbWluIjp0cnVlLCJpYXQiOjE2MzE0OTI3MTN9.jllzPm4DwEvGZ83FBaD3IbeiFQsC58CpTfsov-ihP0A",
							"type": "string"
						}
					]
				},
				"method": "PUT",
				"header": [],
				"body": {
					"mode": "raw",
					"raw": "{\n    \"isActive\" : false\n}",
					"options": {
						"raw": {
							"language": "json"
						}
					}
				},
				"url": {
					"raw": "http://localhost:4000/courses/613e926a82198824c8c4ce0e",
					"protocol": "http",
					"host": [
						"localhost"
					],
					"port": "4000",
					"path": [
						"courses",
						"613e926a82198824c8c4ce0e"
					]
				}
			},
			"response": []
		}
	]
}